%!PS-Adobe-3.0
%%Creator: graphviz version 2.40.1 (20161225.0304)
%%Title: Tree
%%Pages: (atend)
%%BoundingBox: (atend)
%%EndComments
save
%%BeginProlog
/DotDict 200 dict def
DotDict begin

/setupLatin1 {
mark
/EncodingVector 256 array def
 EncodingVector 0

ISOLatin1Encoding 0 255 getinterval putinterval
EncodingVector 45 /hyphen put

% Set up ISO Latin 1 character encoding
/starnetISO {
        dup dup findfont dup length dict begin
        { 1 index /FID ne { def }{ pop pop } ifelse
        } forall
        /Encoding EncodingVector def
        currentdict end definefont
} def
/Times-Roman starnetISO def
/Times-Italic starnetISO def
/Times-Bold starnetISO def
/Times-BoldItalic starnetISO def
/Helvetica starnetISO def
/Helvetica-Oblique starnetISO def
/Helvetica-Bold starnetISO def
/Helvetica-BoldOblique starnetISO def
/Courier starnetISO def
/Courier-Oblique starnetISO def
/Courier-Bold starnetISO def
/Courier-BoldOblique starnetISO def
cleartomark
} bind def

%%BeginResource: procset graphviz 0 0
/coord-font-family /Times-Roman def
/default-font-family /Times-Roman def
/coordfont coord-font-family findfont 8 scalefont def

/InvScaleFactor 1.0 def
/set_scale {
       dup 1 exch div /InvScaleFactor exch def
       scale
} bind def

% styles
/solid { [] 0 setdash } bind def
/dashed { [9 InvScaleFactor mul dup ] 0 setdash } bind def
/dotted { [1 InvScaleFactor mul 6 InvScaleFactor mul] 0 setdash } bind def
/invis {/fill {newpath} def /stroke {newpath} def /show {pop newpath} def} bind def
/bold { 2 setlinewidth } bind def
/filled { } bind def
/unfilled { } bind def
/rounded { } bind def
/diagonals { } bind def
/tapered { } bind def

% hooks for setting color 
/nodecolor { sethsbcolor } bind def
/edgecolor { sethsbcolor } bind def
/graphcolor { sethsbcolor } bind def
/nopcolor {pop pop pop} bind def

/beginpage {	% i j npages
	/npages exch def
	/j exch def
	/i exch def
	/str 10 string def
	npages 1 gt {
		gsave
			coordfont setfont
			0 0 moveto
			(\() show i str cvs show (,) show j str cvs show (\)) show
		grestore
	} if
} bind def

/set_font {
	findfont exch
	scalefont setfont
} def

% draw text fitted to its expected width
/alignedtext {			% width text
	/text exch def
	/width exch def
	gsave
		width 0 gt {
			[] 0 setdash
			text stringwidth pop width exch sub text length div 0 text ashow
		} if
	grestore
} def

/boxprim {				% xcorner ycorner xsize ysize
		4 2 roll
		moveto
		2 copy
		exch 0 rlineto
		0 exch rlineto
		pop neg 0 rlineto
		closepath
} bind def

/ellipse_path {
	/ry exch def
	/rx exch def
	/y exch def
	/x exch def
	matrix currentmatrix
	newpath
	x y translate
	rx ry scale
	0 0 1 0 360 arc
	setmatrix
} bind def

/endpage { showpage } bind def
/showpage { } def

/layercolorseq
	[	% layer color sequence - darkest to lightest
		[0 0 0]
		[.2 .8 .8]
		[.4 .8 .8]
		[.6 .8 .8]
		[.8 .8 .8]
	]
def

/layerlen layercolorseq length def

/setlayer {/maxlayer exch def /curlayer exch def
	layercolorseq curlayer 1 sub layerlen mod get
	aload pop sethsbcolor
	/nodecolor {nopcolor} def
	/edgecolor {nopcolor} def
	/graphcolor {nopcolor} def
} bind def

/onlayer { curlayer ne {invis} if } def

/onlayers {
	/myupper exch def
	/mylower exch def
	curlayer mylower lt
	curlayer myupper gt
	or
	{invis} if
} def

/curlayer 0 def

%%EndResource
%%EndProlog
%%BeginSetup
14 default-font-family set_font
% /arrowlength 10 def
% /arrowwidth 5 def

% make sure pdfmark is harmless for PS-interpreters other than Distiller
/pdfmark where {pop} {userdict /pdfmark /cleartomark load put} ifelse
% make '<<' and '>>' safe on PS Level 1 devices
/languagelevel where {pop languagelevel}{1} ifelse
2 lt {
    userdict (<<) cvn ([) cvn load put
    userdict (>>) cvn ([) cvn load put
} if

%%EndSetup
setupLatin1
%%Page: 1 1
%%PageBoundingBox: 36 36 1201 617
%%PageOrientation: Portrait
0 0 1 beginpage
gsave
36 36 1165 581 boxprim clip newpath
1 1 set_scale 0 rotate 40 40 translate
% 0
gsave
0.40196 0.06746 0.98824 nodecolor
newpath 682.5 573 moveto
556.5 573 lineto
556.5 505 lineto
682.5 505 lineto
closepath fill
1 setlinewidth
filled
0 0 0 nodecolor
newpath 682.5 573 moveto
556.5 573 lineto
556.5 505 lineto
682.5 505 lineto
closepath stroke
0 0 0 nodecolor
14 /Times-Roman set_font
572.5 557.8 moveto 94 (Proline <= 755.0) alignedtext
0 0 0 nodecolor
14 /Times-Roman set_font
585.5 542.8 moveto 68 (gini = 0.658) alignedtext
0 0 0 nodecolor
14 /Times-Roman set_font
579 527.8 moveto 81 (samples = 178) alignedtext
0 0 0 nodecolor
14 /Times-Roman set_font
564.5 512.8 moveto 110 (value = [59, 71, 48]) alignedtext
grestore
% 1
gsave
0.40212 0.2561 0.96471 nodecolor
newpath 612.5 469 moveto
366.5 469 lineto
366.5 401 lineto
612.5 401 lineto
closepath fill
1 setlinewidth
filled
0 0 0 nodecolor
newpath 612.5 469 moveto
366.5 469 lineto
366.5 401 lineto
612.5 401 lineto
closepath stroke
0 0 0 nodecolor
14 /Times-Roman set_font
374.5 453.8 moveto 230 (OD280/OD315 of diluted wines <= 2.115) alignedtext
0 0 0 nodecolor
14 /Times-Roman set_font
455.5 438.8 moveto 68 (gini = 0.492) alignedtext
0 0 0 nodecolor
14 /Times-Roman set_font
449 423.8 moveto 81 (samples = 111) alignedtext
0 0 0 nodecolor
14 /Times-Roman set_font
438 408.8 moveto 103 (value = [2, 67, 42]) alignedtext
grestore
% 0->1
gsave
1 setlinewidth
0 0 0 edgecolor
newpath 576.9331 504.9465 moveto
565.1488 495.519 552.2432 485.1946 540.0519 475.4415 curveto
stroke
0 0 0 edgecolor
newpath 542.1577 472.6439 moveto
532.1625 469.13 lineto
537.7848 478.11 lineto
closepath fill
1 setlinewidth
solid
0 0 0 edgecolor
newpath 542.1577 472.6439 moveto
532.1625 469.13 lineto
537.7848 478.11 lineto
closepath stroke
0 0 0 edgecolor
14 /Times-Roman set_font
521.9233 490.2771 moveto 26 (True) alignedtext
grestore
% 16
gsave
0.070602 0.61803 0.91373 nodecolor
newpath 845 469 moveto
714 469 lineto
714 401 lineto
845 401 lineto
closepath fill
1 setlinewidth
filled
0 0 0 nodecolor
newpath 845 469 moveto
714 469 lineto
714 401 lineto
845 401 lineto
closepath stroke
0 0 0 nodecolor
14 /Times-Roman set_font
722 453.8 moveto 115 (Flavanoids <= 2.165) alignedtext
0 0 0 nodecolor
14 /Times-Roman set_font
745.5 438.8 moveto 68 (gini = 0.265) alignedtext
0 0 0 nodecolor
14 /Times-Roman set_font
742.5 423.8 moveto 74 (samples = 67) alignedtext
0 0 0 nodecolor
14 /Times-Roman set_font
731 408.8 moveto 97 (value = [57, 4, 6]) alignedtext
grestore
% 0->16
gsave
1 setlinewidth
0 0 0 edgecolor
newpath 671.89 504.9465 moveto
686.8082 495.2497 703.1864 484.6039 718.5662 474.6069 curveto
stroke
0 0 0 edgecolor
newpath 720.5153 477.5145 moveto
726.9923 469.13 lineto
716.7004 471.6454 lineto
closepath fill
1 setlinewidth
solid
0 0 0 edgecolor
newpath 720.5153 477.5145 moveto
726.9923 469.13 lineto
716.7004 471.6454 lineto
closepath stroke
0 0 0 edgecolor
14 /Times-Roman set_font
707.3047 489.8858 moveto 29 (False) alignedtext
grestore
% 2
gsave
0.7363 0.62661 0.91373 nodecolor
newpath 380 365 moveto
267 365 lineto
267 297 lineto
380 297 lineto
closepath fill
1 setlinewidth
filled
0 0 0 nodecolor
newpath 380 365 moveto
267 365 lineto
267 297 lineto
380 297 lineto
closepath stroke
0 0 0 nodecolor
14 /Times-Roman set_font
284.5 349.8 moveto 78 (Hue <= 0.935) alignedtext
0 0 0 nodecolor
14 /Times-Roman set_font
289.5 334.8 moveto 68 (gini = 0.227) alignedtext
0 0 0 nodecolor
14 /Times-Roman set_font
286.5 319.8 moveto 74 (samples = 46) alignedtext
0 0 0 nodecolor
14 /Times-Roman set_font
275 304.8 moveto 97 (value = [0, 6, 40]) alignedtext
grestore
% 1->2
gsave
1 setlinewidth
0 0 0 edgecolor
newpath 435.1454 400.9465 moveto
419.6678 391.2497 402.6754 380.6039 386.7188 370.6069 curveto
stroke
0 0 0 edgecolor
newpath 388.3092 367.4732 moveto
377.9767 365.13 lineto
384.5928 373.4052 lineto
closepath fill
1 setlinewidth
solid
0 0 0 edgecolor
newpath 388.3092 367.4732 moveto
377.9767 365.13 lineto
384.5928 373.4052 lineto
closepath stroke
grestore
% 9
gsave
0.40269 0.69697 0.90588 nodecolor
newpath 555 365 moveto
424 365 lineto
424 297 lineto
555 297 lineto
closepath fill
1 setlinewidth
filled
0 0 0 nodecolor
newpath 555 365 moveto
424 365 lineto
424 297 lineto
555 297 lineto
closepath stroke
0 0 0 nodecolor
14 /Times-Roman set_font
432 349.8 moveto 115 (Flavanoids <= 0.795) alignedtext
0 0 0 nodecolor
14 /Times-Roman set_font
455.5 334.8 moveto 68 (gini = 0.117) alignedtext
0 0 0 nodecolor
14 /Times-Roman set_font
452.5 319.8 moveto 74 (samples = 65) alignedtext
0 0 0 nodecolor
14 /Times-Roman set_font
441 304.8 moveto 97 (value = [2, 61, 2]) alignedtext
grestore
% 1->9
gsave
1 setlinewidth
0 0 0 edgecolor
newpath 489.5 400.9465 moveto
489.5 392.776 489.5 383.9318 489.5 375.3697 curveto
stroke
0 0 0 edgecolor
newpath 493.0001 375.13 moveto
489.5 365.13 lineto
486.0001 375.13 lineto
closepath fill
1 setlinewidth
solid
0 0 0 edgecolor
newpath 493.0001 375.13 moveto
489.5 365.13 lineto
486.0001 375.13 lineto
closepath stroke
grestore
% 3
gsave
0.73611 0.73043 0.90196 nodecolor
newpath 240.5 261 moveto
116.5 261 lineto
116.5 193 lineto
240.5 193 lineto
closepath fill
1 setlinewidth
filled
0 0 0 nodecolor
newpath 240.5 261 moveto
116.5 261 lineto
116.5 193 lineto
240.5 193 lineto
closepath stroke
0 0 0 nodecolor
14 /Times-Roman set_font
124.5 245.8 moveto 108 (Flavanoids <= 1.58) alignedtext
0 0 0 nodecolor
14 /Times-Roman set_font
144.5 230.8 moveto 68 (gini = 0.049) alignedtext
0 0 0 nodecolor
14 /Times-Roman set_font
141.5 215.8 moveto 74 (samples = 40) alignedtext
0 0 0 nodecolor
14 /Times-Roman set_font
130 200.8 moveto 97 (value = [0, 1, 39]) alignedtext
grestore
% 2->3
gsave
1 setlinewidth
0 0 0 edgecolor
newpath 276.0216 296.9465 moveto
262.7523 287.4293 248.2085 276.9978 234.4965 267.163 curveto
stroke
0 0 0 edgecolor
newpath 236.251 264.1142 moveto
226.0851 261.13 lineto
232.1712 269.8024 lineto
closepath fill
1 setlinewidth
solid
0 0 0 edgecolor
newpath 236.251 264.1142 moveto
226.0851 261.13 lineto
232.1712 269.8024 lineto
closepath stroke
grestore
% 6
gsave
0.40268 0.58547 0.91765 nodecolor
newpath 388.5 261 moveto
258.5 261 lineto
258.5 193 lineto
388.5 193 lineto
closepath fill
1 setlinewidth
filled
0 0 0 nodecolor
newpath 388.5 261 moveto
258.5 261 lineto
258.5 193 lineto
388.5 193 lineto
closepath stroke
0 0 0 nodecolor
14 /Times-Roman set_font
266.5 245.8 moveto 114 (Malic acid <= 2.395) alignedtext
0 0 0 nodecolor
14 /Times-Roman set_font
289.5 230.8 moveto 68 (gini = 0.278) alignedtext
0 0 0 nodecolor
14 /Times-Roman set_font
290 215.8 moveto 67 (samples = 6) alignedtext
0 0 0 nodecolor
14 /Times-Roman set_font
278.5 200.8 moveto 90 (value = [0, 5, 1]) alignedtext
grestore
% 2->6
gsave
1 setlinewidth
0 0 0 edgecolor
newpath 323.5 296.9465 moveto
323.5 288.776 323.5 279.9318 323.5 271.3697 curveto
stroke
0 0 0 edgecolor
newpath 327.0001 271.13 moveto
323.5 261.13 lineto
320.0001 271.13 lineto
closepath fill
1 setlinewidth
solid
0 0 0 edgecolor
newpath 327.0001 271.13 moveto
323.5 261.13 lineto
320.0001 271.13 lineto
closepath stroke
grestore
% 4
gsave
0.73643 0.75109 0.89804 nodecolor
newpath 113 149.5 moveto
0 149.5 lineto
0 96.5 lineto
113 96.5 lineto
closepath fill
1 setlinewidth
filled
0 0 0 nodecolor
newpath 113 149.5 moveto
0 149.5 lineto
0 96.5 lineto
113 96.5 lineto
closepath stroke
0 0 0 nodecolor
14 /Times-Roman set_font
29 134.3 moveto 55 (gini = 0.0) alignedtext
0 0 0 nodecolor
14 /Times-Roman set_font
19.5 119.3 moveto 74 (samples = 39) alignedtext
0 0 0 nodecolor
14 /Times-Roman set_font
8 104.3 moveto 97 (value = [0, 0, 39]) alignedtext
grestore
% 3->4
gsave
1 setlinewidth
0 0 0 edgecolor
newpath 138.5526 192.9465 moveto
124.7268 181.1606 109.2564 167.9726 95.5071 156.2519 curveto
stroke
0 0 0 edgecolor
newpath 97.5168 153.366 moveto
87.636 149.5422 lineto
92.9756 158.6931 lineto
closepath fill
1 setlinewidth
solid
0 0 0 edgecolor
newpath 97.5168 153.366 moveto
87.636 149.5422 lineto
92.9756 158.6931 lineto
closepath stroke
grestore
% 5
gsave
0.4031 0.75109 0.89804 nodecolor
newpath 237.5 149.5 moveto
131.5 149.5 lineto
131.5 96.5 lineto
237.5 96.5 lineto
closepath fill
1 setlinewidth
filled
0 0 0 nodecolor
newpath 237.5 149.5 moveto
131.5 149.5 lineto
131.5 96.5 lineto
237.5 96.5 lineto
closepath stroke
0 0 0 nodecolor
14 /Times-Roman set_font
157 134.3 moveto 55 (gini = 0.0) alignedtext
0 0 0 nodecolor
14 /Times-Roman set_font
151 119.3 moveto 67 (samples = 1) alignedtext
0 0 0 nodecolor
14 /Times-Roman set_font
139.5 104.3 moveto 90 (value = [0, 1, 0]) alignedtext
grestore
% 3->5
gsave
1 setlinewidth
0 0 0 edgecolor
newpath 180.4646 192.9465 moveto
181.081 182.2621 181.7639 170.4254 182.3899 159.5742 curveto
stroke
0 0 0 edgecolor
newpath 185.8869 159.7272 moveto
182.9687 149.5422 lineto
178.8985 159.3239 lineto
closepath fill
1 setlinewidth
solid
0 0 0 edgecolor
newpath 185.8869 159.7272 moveto
182.9687 149.5422 lineto
178.8985 159.3239 lineto
closepath stroke
grestore
% 7
gsave
0.4031 0.75109 0.89804 nodecolor
newpath 371.5 149.5 moveto
265.5 149.5 lineto
265.5 96.5 lineto
371.5 96.5 lineto
closepath fill
1 setlinewidth
filled
0 0 0 nodecolor
newpath 371.5 149.5 moveto
265.5 149.5 lineto
265.5 96.5 lineto
371.5 96.5 lineto
closepath stroke
0 0 0 nodecolor
14 /Times-Roman set_font
291 134.3 moveto 55 (gini = 0.0) alignedtext
0 0 0 nodecolor
14 /Times-Roman set_font
285 119.3 moveto 67 (samples = 5) alignedtext
0 0 0 nodecolor
14 /Times-Roman set_font
273.5 104.3 moveto 90 (value = [0, 5, 0]) alignedtext
grestore
% 6->7
gsave
1 setlinewidth
0 0 0 edgecolor
newpath 321.8628 192.9465 moveto
321.3491 182.2621 320.7801 170.4254 320.2584 159.5742 curveto
stroke
0 0 0 edgecolor
newpath 323.7523 159.3625 moveto
319.7761 149.5422 lineto
316.7604 159.6987 lineto
closepath fill
1 setlinewidth
solid
0 0 0 edgecolor
newpath 323.7523 159.3625 moveto
319.7761 149.5422 lineto
316.7604 159.6987 lineto
closepath stroke
grestore
% 8
gsave
0.73643 0.75109 0.89804 nodecolor
newpath 495.5 149.5 moveto
389.5 149.5 lineto
389.5 96.5 lineto
495.5 96.5 lineto
closepath fill
1 setlinewidth
filled
0 0 0 nodecolor
newpath 495.5 149.5 moveto
389.5 149.5 lineto
389.5 96.5 lineto
495.5 96.5 lineto
closepath stroke
0 0 0 nodecolor
14 /Times-Roman set_font
415 134.3 moveto 55 (gini = 0.0) alignedtext
0 0 0 nodecolor
14 /Times-Roman set_font
409 119.3 moveto 67 (samples = 1) alignedtext
0 0 0 nodecolor
14 /Times-Roman set_font
397.5 104.3 moveto 90 (value = [0, 0, 1]) alignedtext
grestore
% 6->8
gsave
1 setlinewidth
0 0 0 edgecolor
newpath 362.4651 192.9465 moveto
375.9509 181.1606 391.0409 167.9726 404.4521 156.2519 curveto
stroke
0 0 0 edgecolor
newpath 406.9031 158.7582 moveto
412.1296 149.5422 lineto
402.2967 153.4874 lineto
closepath fill
1 setlinewidth
solid
0 0 0 edgecolor
newpath 406.9031 158.7582 moveto
412.1296 149.5422 lineto
402.2967 153.4874 lineto
closepath stroke
grestore
% 10
gsave
0.73643 0.75109 0.89804 nodecolor
newpath 512.5 253.5 moveto
406.5 253.5 lineto
406.5 200.5 lineto
512.5 200.5 lineto
closepath fill
1 setlinewidth
filled
0 0 0 nodecolor
newpath 512.5 253.5 moveto
406.5 253.5 lineto
406.5 200.5 lineto
512.5 200.5 lineto
closepath stroke
0 0 0 nodecolor
14 /Times-Roman set_font
432 238.3 moveto 55 (gini = 0.0) alignedtext
0 0 0 nodecolor
14 /Times-Roman set_font
426 223.3 moveto 67 (samples = 2) alignedtext
0 0 0 nodecolor
14 /Times-Roman set_font
414.5 208.3 moveto 90 (value = [0, 0, 2]) alignedtext
grestore
% 9->10
gsave
1 setlinewidth
0 0 0 edgecolor
newpath 479.6769 296.9465 moveto
476.563 286.1519 473.11 274.1813 469.9535 263.2389 curveto
stroke
0 0 0 edgecolor
newpath 473.291 262.1803 moveto
467.1564 253.5422 lineto
466.5652 264.1205 lineto
closepath fill
1 setlinewidth
solid
0 0 0 edgecolor
newpath 473.291 262.1803 moveto
467.1564 253.5422 lineto
466.5652 264.1205 lineto
closepath stroke
grestore
% 11
gsave
0.40319 0.72609 0.90196 nodecolor
newpath 652.5 261 moveto
530.5 261 lineto
530.5 193 lineto
652.5 193 lineto
closepath fill
1 setlinewidth
filled
0 0 0 nodecolor
newpath 652.5 261 moveto
530.5 261 lineto
530.5 193 lineto
652.5 193 lineto
closepath stroke
0 0 0 nodecolor
14 /Times-Roman set_font
538.5 245.8 moveto 106 (Alcohol <= 13.175) alignedtext
0 0 0 nodecolor
14 /Times-Roman set_font
557.5 230.8 moveto 68 (gini = 0.061) alignedtext
0 0 0 nodecolor
14 /Times-Roman set_font
554.5 215.8 moveto 74 (samples = 63) alignedtext
0 0 0 nodecolor
14 /Times-Roman set_font
543 200.8 moveto 97 (value = [2, 61, 0]) alignedtext
grestore
% 9->11
gsave
1 setlinewidth
0 0 0 edgecolor
newpath 522.8986 296.9465 moveto
531.8806 287.7884 541.6928 277.7838 551.015 268.2788 curveto
stroke
0 0 0 edgecolor
newpath 553.523 270.7201 moveto
558.0263 261.13 lineto
548.5254 265.8187 lineto
closepath fill
1 setlinewidth
solid
0 0 0 edgecolor
newpath 553.523 270.7201 moveto
558.0263 261.13 lineto
548.5254 265.8187 lineto
closepath stroke
grestore
% 12
gsave
0.4031 0.75109 0.89804 nodecolor
newpath 638 149.5 moveto
525 149.5 lineto
525 96.5 lineto
638 96.5 lineto
closepath fill
1 setlinewidth
filled
0 0 0 nodecolor
newpath 638 149.5 moveto
525 149.5 lineto
525 96.5 lineto
638 96.5 lineto
closepath stroke
0 0 0 nodecolor
14 /Times-Roman set_font
554 134.3 moveto 55 (gini = 0.0) alignedtext
0 0 0 nodecolor
14 /Times-Roman set_font
544.5 119.3 moveto 74 (samples = 58) alignedtext
0 0 0 nodecolor
14 /Times-Roman set_font
533 104.3 moveto 97 (value = [0, 58, 0]) alignedtext
grestore
% 11->12
gsave
1 setlinewidth
0 0 0 edgecolor
newpath 588.2256 192.9465 moveto
587.1983 182.2621 586.0601 170.4254 585.0168 159.5742 curveto
stroke
0 0 0 edgecolor
newpath 588.4933 159.1612 moveto
584.0521 149.5422 lineto
581.5254 159.8313 lineto
closepath fill
1 setlinewidth
solid
0 0 0 edgecolor
newpath 588.4933 159.1612 moveto
584.0521 149.5422 lineto
581.5254 159.8313 lineto
closepath stroke
grestore
% 13
gsave
0.40351 0.23171 0.96471 nodecolor
newpath 786.5 157 moveto
656.5 157 lineto
656.5 89 lineto
786.5 89 lineto
closepath fill
1 setlinewidth
filled
0 0 0 nodecolor
newpath 786.5 157 moveto
656.5 157 lineto
656.5 89 lineto
786.5 89 lineto
closepath stroke
0 0 0 nodecolor
14 /Times-Roman set_font
664.5 141.8 moveto 114 (Magnesium <= 98.5) alignedtext
0 0 0 nodecolor
14 /Times-Roman set_font
691 126.8 moveto 61 (gini = 0.48) alignedtext
0 0 0 nodecolor
14 /Times-Roman set_font
688 111.8 moveto 67 (samples = 5) alignedtext
0 0 0 nodecolor
14 /Times-Roman set_font
676.5 96.8 moveto 90 (value = [2, 3, 0]) alignedtext
grestore
% 11->13
gsave
1 setlinewidth
0 0 0 edgecolor
newpath 634.0669 192.9465 moveto
645.8512 183.519 658.7568 173.1946 670.9481 163.4415 curveto
stroke
0 0 0 edgecolor
newpath 673.2152 166.11 moveto
678.8375 157.13 lineto
668.8423 160.6439 lineto
closepath fill
1 setlinewidth
solid
0 0 0 edgecolor
newpath 673.2152 166.11 moveto
678.8375 157.13 lineto
668.8423 160.6439 lineto
closepath stroke
grestore
% 14
gsave
0.4031 0.75109 0.89804 nodecolor
newpath 712.5 53 moveto
606.5 53 lineto
606.5 0 lineto
712.5 0 lineto
closepath fill
1 setlinewidth
filled
0 0 0 nodecolor
newpath 712.5 53 moveto
606.5 53 lineto
606.5 0 lineto
712.5 0 lineto
closepath stroke
0 0 0 nodecolor
14 /Times-Roman set_font
632 37.8 moveto 55 (gini = 0.0) alignedtext
0 0 0 nodecolor
14 /Times-Roman set_font
626 22.8 moveto 67 (samples = 3) alignedtext
0 0 0 nodecolor
14 /Times-Roman set_font
614.5 7.8 moveto 90 (value = [0, 3, 0]) alignedtext
grestore
% 13->14
gsave
1 setlinewidth
0 0 0 edgecolor
newpath 699.6411 88.9777 moveto
693.9932 80.187 687.9007 70.7044 682.2104 61.8477 curveto
stroke
0 0 0 edgecolor
newpath 685.0356 59.7698 moveto
676.6856 53.2485 lineto
679.1463 63.5536 lineto
closepath fill
1 setlinewidth
solid
0 0 0 edgecolor
newpath 685.0356 59.7698 moveto
676.6856 53.2485 lineto
679.1463 63.5536 lineto
closepath stroke
grestore
% 15
gsave
0.069767 0.75109 0.89804 nodecolor
newpath 836.5 53 moveto
730.5 53 lineto
730.5 0 lineto
836.5 0 lineto
closepath fill
1 setlinewidth
filled
0 0 0 nodecolor
newpath 836.5 53 moveto
730.5 53 lineto
730.5 0 lineto
836.5 0 lineto
closepath stroke
0 0 0 nodecolor
14 /Times-Roman set_font
756 37.8 moveto 55 (gini = 0.0) alignedtext
0 0 0 nodecolor
14 /Times-Roman set_font
750 22.8 moveto 67 (samples = 2) alignedtext
0 0 0 nodecolor
14 /Times-Roman set_font
738.5 7.8 moveto 90 (value = [2, 0, 0]) alignedtext
grestore
% 13->15
gsave
1 setlinewidth
0 0 0 edgecolor
newpath 743.3589 88.9777 moveto
749.0068 80.187 755.0993 70.7044 760.7896 61.8477 curveto
stroke
0 0 0 edgecolor
newpath 763.8537 63.5536 moveto
766.3144 53.2485 lineto
757.9644 59.7698 lineto
closepath fill
1 setlinewidth
solid
0 0 0 edgecolor
newpath 763.8537 63.5536 moveto
766.3144 53.2485 lineto
757.9644 59.7698 lineto
closepath stroke
grestore
% 17
gsave
0.73623 0.48319 0.93333 nodecolor
newpath 832.5 365 moveto
726.5 365 lineto
726.5 297 lineto
832.5 297 lineto
closepath fill
1 setlinewidth
filled
0 0 0 nodecolor
newpath 832.5 365 moveto
726.5 365 lineto
726.5 297 lineto
832.5 297 lineto
closepath stroke
0 0 0 nodecolor
14 /Times-Roman set_font
740.5 349.8 moveto 78 (Hue <= 0.803) alignedtext
0 0 0 nodecolor
14 /Times-Roman set_font
745.5 334.8 moveto 68 (gini = 0.375) alignedtext
0 0 0 nodecolor
14 /Times-Roman set_font
746 319.8 moveto 67 (samples = 8) alignedtext
0 0 0 nodecolor
14 /Times-Roman set_font
734.5 304.8 moveto 90 (value = [0, 2, 6]) alignedtext
grestore
% 16->17
gsave
1 setlinewidth
0 0 0 edgecolor
newpath 779.5 400.9465 moveto
779.5 392.776 779.5 383.9318 779.5 375.3697 curveto
stroke
0 0 0 edgecolor
newpath 783.0001 375.13 moveto
779.5 365.13 lineto
776.0001 375.13 lineto
closepath fill
1 setlinewidth
solid
0 0 0 edgecolor
newpath 783.0001 375.13 moveto
779.5 365.13 lineto
776.0001 375.13 lineto
closepath stroke
grestore
% 20
gsave
0.069277 0.72174 0.90196 nodecolor
newpath 1044 365 moveto
907 365 lineto
907 297 lineto
1044 297 lineto
closepath fill
1 setlinewidth
filled
0 0 0 nodecolor
newpath 1044 365 moveto
907 365 lineto
907 297 lineto
1044 297 lineto
closepath stroke
0 0 0 nodecolor
14 /Times-Roman set_font
915 349.8 moveto 121 (Magnesium <= 135.5) alignedtext
0 0 0 nodecolor
14 /Times-Roman set_font
941.5 334.8 moveto 68 (gini = 0.065) alignedtext
0 0 0 nodecolor
14 /Times-Roman set_font
938.5 319.8 moveto 74 (samples = 59) alignedtext
0 0 0 nodecolor
14 /Times-Roman set_font
927 304.8 moveto 97 (value = [57, 2, 0]) alignedtext
grestore
% 16->20
gsave
1 setlinewidth
0 0 0 edgecolor
newpath 843.6777 400.9465 moveto
862.3755 391.0252 882.9456 380.1105 902.1625 369.9138 curveto
stroke
0 0 0 edgecolor
newpath 903.9851 372.9089 moveto
911.1781 365.13 lineto
900.7041 366.7255 lineto
closepath fill
1 setlinewidth
solid
0 0 0 edgecolor
newpath 903.9851 372.9089 moveto
911.1781 365.13 lineto
900.7041 366.7255 lineto
closepath stroke
grestore
% 18
gsave
0.73643 0.75109 0.89804 nodecolor
newpath 776.5 253.5 moveto
670.5 253.5 lineto
670.5 200.5 lineto
776.5 200.5 lineto
closepath fill
1 setlinewidth
filled
0 0 0 nodecolor
newpath 776.5 253.5 moveto
670.5 253.5 lineto
670.5 200.5 lineto
776.5 200.5 lineto
closepath stroke
0 0 0 nodecolor
14 /Times-Roman set_font
696 238.3 moveto 55 (gini = 0.0) alignedtext
0 0 0 nodecolor
14 /Times-Roman set_font
690 223.3 moveto 67 (samples = 6) alignedtext
0 0 0 nodecolor
14 /Times-Roman set_font
678.5 208.3 moveto 90 (value = [0, 0, 6]) alignedtext
grestore
% 17->18
gsave
1 setlinewidth
0 0 0 edgecolor
newpath 761.1635 296.9465 moveto
755.2324 285.9316 748.6419 273.6922 742.6532 262.5703 curveto
stroke
0 0 0 edgecolor
newpath 745.6146 260.6875 moveto
737.7919 253.5422 lineto
739.4513 264.0063 lineto
closepath fill
1 setlinewidth
solid
0 0 0 edgecolor
newpath 745.6146 260.6875 moveto
737.7919 253.5422 lineto
739.4513 264.0063 lineto
closepath stroke
grestore
% 19
gsave
0.4031 0.75109 0.89804 nodecolor
newpath 900.5 253.5 moveto
794.5 253.5 lineto
794.5 200.5 lineto
900.5 200.5 lineto
closepath fill
1 setlinewidth
filled
0 0 0 nodecolor
newpath 900.5 253.5 moveto
794.5 253.5 lineto
794.5 200.5 lineto
900.5 200.5 lineto
closepath stroke
0 0 0 nodecolor
14 /Times-Roman set_font
820 238.3 moveto 55 (gini = 0.0) alignedtext
0 0 0 nodecolor
14 /Times-Roman set_font
814 223.3 moveto 67 (samples = 2) alignedtext
0 0 0 nodecolor
14 /Times-Roman set_font
802.5 208.3 moveto 90 (value = [0, 2, 0]) alignedtext
grestore
% 17->19
gsave
1 setlinewidth
0 0 0 edgecolor
newpath 801.7657 296.9465 moveto
809.0398 285.8215 817.1306 273.4473 824.4604 262.237 curveto
stroke
0 0 0 edgecolor
newpath 827.6024 263.8273 moveto
830.1455 253.5422 lineto
821.7436 259.9965 lineto
closepath fill
1 setlinewidth
solid
0 0 0 edgecolor
newpath 827.6024 263.8273 moveto
830.1455 253.5422 lineto
821.7436 259.9965 lineto
closepath stroke
grestore
% 21
gsave
0.069767 0.75109 0.89804 nodecolor
newpath 1032 253.5 moveto
919 253.5 lineto
919 200.5 lineto
1032 200.5 lineto
closepath fill
1 setlinewidth
filled
0 0 0 nodecolor
newpath 1032 253.5 moveto
919 253.5 lineto
919 200.5 lineto
1032 200.5 lineto
closepath stroke
0 0 0 nodecolor
14 /Times-Roman set_font
948 238.3 moveto 55 (gini = 0.0) alignedtext
0 0 0 nodecolor
14 /Times-Roman set_font
938.5 223.3 moveto 74 (samples = 57) alignedtext
0 0 0 nodecolor
14 /Times-Roman set_font
927 208.3 moveto 97 (value = [57, 0, 0]) alignedtext
grestore
% 20->21
gsave
1 setlinewidth
0 0 0 edgecolor
newpath 975.5 296.9465 moveto
975.5 286.2621 975.5 274.4254 975.5 263.5742 curveto
stroke
0 0 0 edgecolor
newpath 979.0001 263.5421 moveto
975.5 253.5422 lineto
972.0001 263.5422 lineto
closepath fill
1 setlinewidth
solid
0 0 0 edgecolor
newpath 979.0001 263.5421 moveto
975.5 253.5422 lineto
972.0001 263.5422 lineto
closepath stroke
grestore
% 22
gsave
0.4031 0.75109 0.89804 nodecolor
newpath 1156.5 253.5 moveto
1050.5 253.5 lineto
1050.5 200.5 lineto
1156.5 200.5 lineto
closepath fill
1 setlinewidth
filled
0 0 0 nodecolor
newpath 1156.5 253.5 moveto
1050.5 253.5 lineto
1050.5 200.5 lineto
1156.5 200.5 lineto
closepath stroke
0 0 0 nodecolor
14 /Times-Roman set_font
1076 238.3 moveto 55 (gini = 0.0) alignedtext
0 0 0 nodecolor
14 /Times-Roman set_font
1070 223.3 moveto 67 (samples = 2) alignedtext
0 0 0 nodecolor
14 /Times-Roman set_font
1058.5 208.3 moveto 90 (value = [0, 2, 0]) alignedtext
grestore
% 20->22
gsave
1 setlinewidth
0 0 0 edgecolor
newpath 1017.412 296.9465 moveto
1032.0533 285.0504 1048.4526 271.726 1062.9785 259.9237 curveto
stroke
0 0 0 edgecolor
newpath 1065.2786 262.5645 moveto
1070.8327 253.5422 lineto
1060.8645 257.1317 lineto
closepath fill
1 setlinewidth
solid
0 0 0 edgecolor
newpath 1065.2786 262.5645 moveto
1070.8327 253.5422 lineto
1060.8645 257.1317 lineto
closepath stroke
grestore
endpage
showpage
grestore
%%PageTrailer
%%EndPage: 1
%%Trailer
%%Pages: 1
%%BoundingBox: 36 36 1201 617
end
restore
%%EOF
