%!PS-Adobe-3.0
%%Creator: graphviz version 2.40.1 (20161225.0304)
%%Title: Tree
%%Pages: (atend)
%%BoundingBox: (atend)
%%EndComments
save
%%BeginProlog
/DotDict 200 dict def
DotDict begin

/setupLatin1 {
mark
/EncodingVector 256 array def
 EncodingVector 0

ISOLatin1Encoding 0 255 getinterval putinterval
EncodingVector 45 /hyphen put

% Set up ISO Latin 1 character encoding
/starnetISO {
        dup dup findfont dup length dict begin
        { 1 index /FID ne { def }{ pop pop } ifelse
        } forall
        /Encoding EncodingVector def
        currentdict end definefont
} def
/Times-Roman starnetISO def
/Times-Italic starnetISO def
/Times-Bold starnetISO def
/Times-BoldItalic starnetISO def
/Helvetica starnetISO def
/Helvetica-Oblique starnetISO def
/Helvetica-Bold starnetISO def
/Helvetica-BoldOblique starnetISO def
/Courier starnetISO def
/Courier-Oblique starnetISO def
/Courier-Bold starnetISO def
/Courier-BoldOblique starnetISO def
cleartomark
} bind def

%%BeginResource: procset graphviz 0 0
/coord-font-family /Times-Roman def
/default-font-family /Times-Roman def
/coordfont coord-font-family findfont 8 scalefont def

/InvScaleFactor 1.0 def
/set_scale {
       dup 1 exch div /InvScaleFactor exch def
       scale
} bind def

% styles
/solid { [] 0 setdash } bind def
/dashed { [9 InvScaleFactor mul dup ] 0 setdash } bind def
/dotted { [1 InvScaleFactor mul 6 InvScaleFactor mul] 0 setdash } bind def
/invis {/fill {newpath} def /stroke {newpath} def /show {pop newpath} def} bind def
/bold { 2 setlinewidth } bind def
/filled { } bind def
/unfilled { } bind def
/rounded { } bind def
/diagonals { } bind def
/tapered { } bind def

% hooks for setting color 
/nodecolor { sethsbcolor } bind def
/edgecolor { sethsbcolor } bind def
/graphcolor { sethsbcolor } bind def
/nopcolor {pop pop pop} bind def

/beginpage {	% i j npages
	/npages exch def
	/j exch def
	/i exch def
	/str 10 string def
	npages 1 gt {
		gsave
			coordfont setfont
			0 0 moveto
			(\() show i str cvs show (,) show j str cvs show (\)) show
		grestore
	} if
} bind def

/set_font {
	findfont exch
	scalefont setfont
} def

% draw text fitted to its expected width
/alignedtext {			% width text
	/text exch def
	/width exch def
	gsave
		width 0 gt {
			[] 0 setdash
			text stringwidth pop width exch sub text length div 0 text ashow
		} if
	grestore
} def

/boxprim {				% xcorner ycorner xsize ysize
		4 2 roll
		moveto
		2 copy
		exch 0 rlineto
		0 exch rlineto
		pop neg 0 rlineto
		closepath
} bind def

/ellipse_path {
	/ry exch def
	/rx exch def
	/y exch def
	/x exch def
	matrix currentmatrix
	newpath
	x y translate
	rx ry scale
	0 0 1 0 360 arc
	setmatrix
} bind def

/endpage { showpage } bind def
/showpage { } def

/layercolorseq
	[	% layer color sequence - darkest to lightest
		[0 0 0]
		[.2 .8 .8]
		[.4 .8 .8]
		[.6 .8 .8]
		[.8 .8 .8]
	]
def

/layerlen layercolorseq length def

/setlayer {/maxlayer exch def /curlayer exch def
	layercolorseq curlayer 1 sub layerlen mod get
	aload pop sethsbcolor
	/nodecolor {nopcolor} def
	/edgecolor {nopcolor} def
	/graphcolor {nopcolor} def
} bind def

/onlayer { curlayer ne {invis} if } def

/onlayers {
	/myupper exch def
	/mylower exch def
	curlayer mylower lt
	curlayer myupper gt
	or
	{invis} if
} def

/curlayer 0 def

%%EndResource
%%EndProlog
%%BeginSetup
14 default-font-family set_font
% /arrowlength 10 def
% /arrowwidth 5 def

% make sure pdfmark is harmless for PS-interpreters other than Distiller
/pdfmark where {pop} {userdict /pdfmark /cleartomark load put} ifelse
% make '<<' and '>>' safe on PS Level 1 devices
/languagelevel where {pop languagelevel}{1} ifelse
2 lt {
    userdict (<<) cvn ([) cvn load put
    userdict (>>) cvn ([) cvn load put
} if

%%EndSetup
setupLatin1
%%Page: 1 1
%%PageBoundingBox: 36 36 830 409
%%PageOrientation: Portrait
0 0 1 beginpage
gsave
36 36 794 373 boxprim clip newpath
1 1 set_scale 0 rotate 40 40 translate
% 0
gsave
0.40196 0.06746 0.98824 nodecolor
newpath 468.5 365 moveto
342.5 365 lineto
342.5 297 lineto
468.5 297 lineto
closepath fill
1 setlinewidth
filled
0 0 0 nodecolor
newpath 468.5 365 moveto
342.5 365 lineto
342.5 297 lineto
468.5 297 lineto
closepath stroke
0 0 0 nodecolor
14 /Times-Roman set_font
358.5 349.8 moveto 94 (Proline <= 755.0) alignedtext
0 0 0 nodecolor
14 /Times-Roman set_font
371.5 334.8 moveto 68 (gini = 0.658) alignedtext
0 0 0 nodecolor
14 /Times-Roman set_font
365 319.8 moveto 81 (samples = 178) alignedtext
0 0 0 nodecolor
14 /Times-Roman set_font
350.5 304.8 moveto 110 (value = [59, 71, 48]) alignedtext
grestore
% 1
gsave
0.40212 0.2561 0.96471 nodecolor
newpath 425.5 261 moveto
179.5 261 lineto
179.5 193 lineto
425.5 193 lineto
closepath fill
1 setlinewidth
filled
0 0 0 nodecolor
newpath 425.5 261 moveto
179.5 261 lineto
179.5 193 lineto
425.5 193 lineto
closepath stroke
0 0 0 nodecolor
14 /Times-Roman set_font
187.5 245.8 moveto 230 (OD280/OD315 of diluted wines <= 2.115) alignedtext
0 0 0 nodecolor
14 /Times-Roman set_font
268.5 230.8 moveto 68 (gini = 0.492) alignedtext
0 0 0 nodecolor
14 /Times-Roman set_font
262 215.8 moveto 81 (samples = 111) alignedtext
0 0 0 nodecolor
14 /Times-Roman set_font
251 200.8 moveto 103 (value = [2, 67, 42]) alignedtext
grestore
% 0->1
gsave
1 setlinewidth
0 0 0 edgecolor
newpath 371.7739 296.9465 moveto
362.7039 287.7884 352.7955 277.7838 343.3819 268.2788 curveto
stroke
0 0 0 edgecolor
newpath 345.8255 265.7723 moveto
336.3018 261.13 lineto
340.8519 270.6981 lineto
closepath fill
1 setlinewidth
solid
0 0 0 edgecolor
newpath 345.8255 265.7723 moveto
336.3018 261.13 lineto
340.8519 270.6981 lineto
closepath stroke
0 0 0 edgecolor
14 /Times-Roman set_font
323.1811 282.4297 moveto 26 (True) alignedtext
grestore
% 8
gsave
0.070602 0.61803 0.91373 nodecolor
newpath 575 261 moveto
444 261 lineto
444 193 lineto
575 193 lineto
closepath fill
1 setlinewidth
filled
0 0 0 nodecolor
newpath 575 261 moveto
444 261 lineto
444 193 lineto
575 193 lineto
closepath stroke
0 0 0 nodecolor
14 /Times-Roman set_font
452 245.8 moveto 115 (Flavanoids <= 2.165) alignedtext
0 0 0 nodecolor
14 /Times-Roman set_font
475.5 230.8 moveto 68 (gini = 0.265) alignedtext
0 0 0 nodecolor
14 /Times-Roman set_font
472.5 215.8 moveto 74 (samples = 67) alignedtext
0 0 0 nodecolor
14 /Times-Roman set_font
461 200.8 moveto 97 (value = [57, 4, 6]) alignedtext
grestore
% 0->8
gsave
1 setlinewidth
0 0 0 edgecolor
newpath 439.5535 296.9465 moveto
448.7116 287.7884 458.7162 277.7838 468.2212 268.2788 curveto
stroke
0 0 0 edgecolor
newpath 470.7738 270.676 moveto
475.37 261.13 lineto
465.824 265.7262 lineto
closepath fill
1 setlinewidth
solid
0 0 0 edgecolor
newpath 470.7738 270.676 moveto
475.37 261.13 lineto
465.824 265.7262 lineto
closepath stroke
0 0 0 edgecolor
14 /Times-Roman set_font
460.87 282.43 moveto 29 (False) alignedtext
grestore
% 2
gsave
0.7363 0.62661 0.91373 nodecolor
newpath 237 157 moveto
124 157 lineto
124 89 lineto
237 89 lineto
closepath fill
1 setlinewidth
filled
0 0 0 nodecolor
newpath 237 157 moveto
124 157 lineto
124 89 lineto
237 89 lineto
closepath stroke
0 0 0 nodecolor
14 /Times-Roman set_font
141.5 141.8 moveto 78 (Hue <= 0.935) alignedtext
0 0 0 nodecolor
14 /Times-Roman set_font
146.5 126.8 moveto 68 (gini = 0.227) alignedtext
0 0 0 nodecolor
14 /Times-Roman set_font
143.5 111.8 moveto 74 (samples = 46) alignedtext
0 0 0 nodecolor
14 /Times-Roman set_font
132 96.8 moveto 97 (value = [0, 6, 40]) alignedtext
grestore
% 1->2
gsave
1 setlinewidth
0 0 0 edgecolor
newpath 262.5526 192.9465 moveto
251.5988 183.6088 239.6127 173.3911 228.268 163.7203 curveto
stroke
0 0 0 edgecolor
newpath 230.4179 160.9538 moveto
220.5371 157.13 lineto
225.8767 166.2809 lineto
closepath fill
1 setlinewidth
solid
0 0 0 edgecolor
newpath 230.4179 160.9538 moveto
220.5371 157.13 lineto
225.8767 166.2809 lineto
closepath stroke
grestore
% 5
gsave
0.40269 0.69697 0.90588 nodecolor
newpath 386 157 moveto
255 157 lineto
255 89 lineto
386 89 lineto
closepath fill
1 setlinewidth
filled
0 0 0 nodecolor
newpath 386 157 moveto
255 157 lineto
255 89 lineto
386 89 lineto
closepath stroke
0 0 0 nodecolor
14 /Times-Roman set_font
263 141.8 moveto 115 (Flavanoids <= 0.795) alignedtext
0 0 0 nodecolor
14 /Times-Roman set_font
286.5 126.8 moveto 68 (gini = 0.117) alignedtext
0 0 0 nodecolor
14 /Times-Roman set_font
283.5 111.8 moveto 74 (samples = 65) alignedtext
0 0 0 nodecolor
14 /Times-Roman set_font
272 96.8 moveto 97 (value = [2, 61, 2]) alignedtext
grestore
% 1->5
gsave
1 setlinewidth
0 0 0 edgecolor
newpath 308.3939 192.9465 moveto
309.8235 184.6863 311.3724 175.7374 312.8695 167.0875 curveto
stroke
0 0 0 edgecolor
newpath 316.3361 167.5804 moveto
314.5929 157.13 lineto
309.4387 166.3866 lineto
closepath fill
1 setlinewidth
solid
0 0 0 edgecolor
newpath 316.3361 167.5804 moveto
314.5929 157.13 lineto
309.4387 166.3866 lineto
closepath stroke
grestore
% 3
gsave
0.73611 0.73043 0.90196 nodecolor
newpath 113 53 moveto
0 53 lineto
0 0 lineto
113 0 lineto
closepath fill
1 setlinewidth
filled
0 0 0 nodecolor
newpath 113 53 moveto
0 53 lineto
0 0 lineto
113 0 lineto
closepath stroke
0 0 0 nodecolor
14 /Times-Roman set_font
22.5 37.8 moveto 68 (gini = 0.049) alignedtext
0 0 0 nodecolor
14 /Times-Roman set_font
19.5 22.8 moveto 74 (samples = 40) alignedtext
0 0 0 nodecolor
14 /Times-Roman set_font
8 7.8 moveto 97 (value = [0, 1, 39]) alignedtext
grestore
% 2->3
gsave
1 setlinewidth
0 0 0 edgecolor
newpath 136.7822 88.9777 moveto
124.5451 79.4545 111.2645 69.1191 99.0934 59.6473 curveto
stroke
0 0 0 edgecolor
newpath 100.9125 56.628 moveto
90.8711 53.2485 lineto
96.6134 62.1523 lineto
closepath fill
1 setlinewidth
solid
0 0 0 edgecolor
newpath 100.9125 56.628 moveto
90.8711 53.2485 lineto
96.6134 62.1523 lineto
closepath stroke
grestore
% 4
gsave
0.40268 0.58547 0.91765 nodecolor
newpath 237.5 53 moveto
131.5 53 lineto
131.5 0 lineto
237.5 0 lineto
closepath fill
1 setlinewidth
filled
0 0 0 nodecolor
newpath 237.5 53 moveto
131.5 53 lineto
131.5 0 lineto
237.5 0 lineto
closepath stroke
0 0 0 nodecolor
14 /Times-Roman set_font
150.5 37.8 moveto 68 (gini = 0.278) alignedtext
0 0 0 nodecolor
14 /Times-Roman set_font
151 22.8 moveto 67 (samples = 6) alignedtext
0 0 0 nodecolor
14 /Times-Roman set_font
139.5 7.8 moveto 90 (value = [0, 5, 1]) alignedtext
grestore
% 2->4
gsave
1 setlinewidth
0 0 0 edgecolor
newpath 181.9103 88.9777 moveto
182.2519 80.7364 182.6187 71.887 182.9657 63.5153 curveto
stroke
0 0 0 edgecolor
newpath 186.474 63.3849 moveto
183.3913 53.2485 lineto
179.48 63.0949 lineto
closepath fill
1 setlinewidth
solid
0 0 0 edgecolor
newpath 186.474 63.3849 moveto
183.3913 53.2485 lineto
179.48 63.0949 lineto
closepath stroke
grestore
% 6
gsave
0.73643 0.75109 0.89804 nodecolor
newpath 369.5 53 moveto
263.5 53 lineto
263.5 0 lineto
369.5 0 lineto
closepath fill
1 setlinewidth
filled
0 0 0 nodecolor
newpath 369.5 53 moveto
263.5 53 lineto
263.5 0 lineto
369.5 0 lineto
closepath stroke
0 0 0 nodecolor
14 /Times-Roman set_font
289 37.8 moveto 55 (gini = 0.0) alignedtext
0 0 0 nodecolor
14 /Times-Roman set_font
283 22.8 moveto 67 (samples = 2) alignedtext
0 0 0 nodecolor
14 /Times-Roman set_font
271.5 7.8 moveto 90 (value = [0, 0, 2]) alignedtext
grestore
% 5->6
gsave
1 setlinewidth
0 0 0 edgecolor
newpath 319.0897 88.9777 moveto
318.7481 80.7364 318.3813 71.887 318.0343 63.5153 curveto
stroke
0 0 0 edgecolor
newpath 321.52 63.0949 moveto
317.6087 53.2485 lineto
314.526 63.3849 lineto
closepath fill
1 setlinewidth
solid
0 0 0 edgecolor
newpath 321.52 63.0949 moveto
317.6087 53.2485 lineto
314.526 63.3849 lineto
closepath stroke
grestore
% 7
gsave
0.40319 0.72609 0.90196 nodecolor
newpath 501 53 moveto
388 53 lineto
388 0 lineto
501 0 lineto
closepath fill
1 setlinewidth
filled
0 0 0 nodecolor
newpath 501 53 moveto
388 53 lineto
388 0 lineto
501 0 lineto
closepath stroke
0 0 0 nodecolor
14 /Times-Roman set_font
410.5 37.8 moveto 68 (gini = 0.061) alignedtext
0 0 0 nodecolor
14 /Times-Roman set_font
407.5 22.8 moveto 74 (samples = 63) alignedtext
0 0 0 nodecolor
14 /Times-Roman set_font
396 7.8 moveto 97 (value = [2, 61, 0]) alignedtext
grestore
% 5->7
gsave
1 setlinewidth
0 0 0 edgecolor
newpath 364.2178 88.9777 moveto
376.4549 79.4545 389.7355 69.1191 401.9066 59.6473 curveto
stroke
0 0 0 edgecolor
newpath 404.3866 62.1523 moveto
410.1289 53.2485 lineto
400.0875 56.628 lineto
closepath fill
1 setlinewidth
solid
0 0 0 edgecolor
newpath 404.3866 62.1523 moveto
410.1289 53.2485 lineto
400.0875 56.628 lineto
closepath stroke
grestore
% 9
gsave
0.73623 0.48319 0.93333 nodecolor
newpath 545.5 149.5 moveto
439.5 149.5 lineto
439.5 96.5 lineto
545.5 96.5 lineto
closepath fill
1 setlinewidth
filled
0 0 0 nodecolor
newpath 545.5 149.5 moveto
439.5 149.5 lineto
439.5 96.5 lineto
545.5 96.5 lineto
closepath stroke
0 0 0 nodecolor
14 /Times-Roman set_font
458.5 134.3 moveto 68 (gini = 0.375) alignedtext
0 0 0 nodecolor
14 /Times-Roman set_font
459 119.3 moveto 67 (samples = 8) alignedtext
0 0 0 nodecolor
14 /Times-Roman set_font
447.5 104.3 moveto 90 (value = [0, 2, 6]) alignedtext
grestore
% 8->9
gsave
1 setlinewidth
0 0 0 edgecolor
newpath 503.9336 192.9465 moveto
502.1871 182.2621 500.2522 170.4254 498.4785 159.5742 curveto
stroke
0 0 0 edgecolor
newpath 501.9061 158.8465 moveto
496.8386 149.5422 lineto
494.9978 159.9758 lineto
closepath fill
1 setlinewidth
solid
0 0 0 edgecolor
newpath 501.9061 158.8465 moveto
496.8386 149.5422 lineto
494.9978 159.9758 lineto
closepath stroke
grestore
% 10
gsave
0.069277 0.72174 0.90196 nodecolor
newpath 701 157 moveto
564 157 lineto
564 89 lineto
701 89 lineto
closepath fill
1 setlinewidth
filled
0 0 0 nodecolor
newpath 701 157 moveto
564 157 lineto
564 89 lineto
701 89 lineto
closepath stroke
0 0 0 nodecolor
14 /Times-Roman set_font
572 141.8 moveto 121 (Magnesium <= 135.5) alignedtext
0 0 0 nodecolor
14 /Times-Roman set_font
598.5 126.8 moveto 68 (gini = 0.065) alignedtext
0 0 0 nodecolor
14 /Times-Roman set_font
595.5 111.8 moveto 74 (samples = 59) alignedtext
0 0 0 nodecolor
14 /Times-Roman set_font
584 96.8 moveto 97 (value = [57, 2, 0]) alignedtext
grestore
% 8->10
gsave
1 setlinewidth
0 0 0 edgecolor
newpath 549.7748 192.9465 moveto
560.8184 183.6088 572.9028 173.3911 584.3404 163.7203 curveto
stroke
0 0 0 edgecolor
newpath 586.7583 166.2594 moveto
592.1347 157.13 lineto
582.2386 160.914 lineto
closepath fill
1 setlinewidth
solid
0 0 0 edgecolor
newpath 586.7583 166.2594 moveto
592.1347 157.13 lineto
582.2386 160.914 lineto
closepath stroke
grestore
% 11
gsave
0.069767 0.75109 0.89804 nodecolor
newpath 661 53 moveto
548 53 lineto
548 0 lineto
661 0 lineto
closepath fill
1 setlinewidth
filled
0 0 0 nodecolor
newpath 661 53 moveto
548 53 lineto
548 0 lineto
661 0 lineto
closepath stroke
0 0 0 nodecolor
14 /Times-Roman set_font
577 37.8 moveto 55 (gini = 0.0) alignedtext
0 0 0 nodecolor
14 /Times-Roman set_font
567.5 22.8 moveto 74 (samples = 57) alignedtext
0 0 0 nodecolor
14 /Times-Roman set_font
556 7.8 moveto 97 (value = [57, 0, 0]) alignedtext
grestore
% 10->11
gsave
1 setlinewidth
0 0 0 edgecolor
newpath 622.6282 88.9777 moveto
620.1839 80.5533 617.5551 71.4934 615.0785 62.9579 curveto
stroke
0 0 0 edgecolor
newpath 618.4093 61.877 moveto
612.2612 53.2485 lineto
611.6865 63.8277 lineto
closepath fill
1 setlinewidth
solid
0 0 0 edgecolor
newpath 618.4093 61.877 moveto
612.2612 53.2485 lineto
611.6865 63.8277 lineto
closepath stroke
grestore
% 12
gsave
0.4031 0.75109 0.89804 nodecolor
newpath 785.5 53 moveto
679.5 53 lineto
679.5 0 lineto
785.5 0 lineto
closepath fill
1 setlinewidth
filled
0 0 0 nodecolor
newpath 785.5 53 moveto
679.5 53 lineto
679.5 0 lineto
785.5 0 lineto
closepath stroke
0 0 0 nodecolor
14 /Times-Roman set_font
705 37.8 moveto 55 (gini = 0.0) alignedtext
0 0 0 nodecolor
14 /Times-Roman set_font
699 22.8 moveto 67 (samples = 2) alignedtext
0 0 0 nodecolor
14 /Times-Roman set_font
687.5 7.8 moveto 90 (value = [0, 2, 0]) alignedtext
grestore
% 10->12
gsave
1 setlinewidth
0 0 0 edgecolor
newpath 667.7563 88.9777 moveto
677.4351 79.6376 687.9235 69.5163 697.5832 60.1947 curveto
stroke
0 0 0 edgecolor
newpath 700.0159 62.7111 moveto
704.7814 53.2485 lineto
695.1551 57.674 lineto
closepath fill
1 setlinewidth
solid
0 0 0 edgecolor
newpath 700.0159 62.7111 moveto
704.7814 53.2485 lineto
695.1551 57.674 lineto
closepath stroke
grestore
endpage
showpage
grestore
%%PageTrailer
%%EndPage: 1
%%Trailer
%%Pages: 1
%%BoundingBox: 36 36 830 409
end
restore
%%EOF
